texture Bridge1 20_bridge1.png
texture Bridge2 21_bridge2.png
texture Cumulus1 7_cumulus1.png
texture Cumulus2 8_cumulus2.png
texture Cumulus3 9_cumulus3.png
texture Log 16_log.png
texture Rock1 10_rock1.png
texture Rock2 11_rock2.png
texture Rock3 12_rock3.png
texture Rock4 14_rock4.png
texture Rock5 15_rock5.png
texture Sign1 17_sign1.png
texture Sign2 18_sign2.png
texture Sign3 19_sign3.png
texture Tappi1 1_tappi1.png
texture Tappi2 2_tappi2.png
texture Tappi3 3_tappi3.png
texture Tappi4 4_tappi4.png
texture Tappi5 5_tappi5.png
texture Tappi6 6_tappi6.png
texture bg map_canyon_bg.png
texture bridge bridge.png
texture dark ground2.png
texture fg map_canyon_fg.png
texture light ground3.png
background 1 bg
background 8 fg
triangles light 4 0 14 147.3 -119.7 152.9 -117.05 150 -135.5 152.9 -117.05 150 -135.5 154.8 -135.4 150 -135.5 154.8 -135.4 153 -144.45 154.8 -135.4 153 -144.45 157.3 -144.8 153 -144.45 157.3 -144.8 156.7 -158.5 157.3 -144.8 156.7 -158.5 165.75 -153.45 156.7 -158.5 165.75 -153.45 167.85 -162.2 165.75 -153.45 167.85 -162.2 173.3 -159.2 167.85 -162.2 173.3 -159.2 185.15 -162.3 173.3 -159.2 185.15 -162.3 189.1 -158.45 185.15 -162.3 189.1 -158.45 206.9 -171.05 189.1 -158.45 206.9 -171.05 218 -167 206.9 -171.05 218 -167 219.4 -172 218 -167 219.4 -172 229.35 -168.9 
triangles light 4 0 17 163.4 -247.6 172.85 -246 165.1 -240.6 172.85 -246 165.1 -240.6 169.9 -238.1 165.1 -240.6 169.9 -238.1 166.8 -234.4 169.9 -238.1 166.8 -234.4 169.8 -233.15 166.8 -234.4 169.8 -233.15 166.55 -228.95 169.8 -233.15 166.55 -228.95 170.1 -227.2 166.55 -228.95 170.1 -227.2 166.9 -225.35 170.1 -227.2 166.9 -225.35 170.55 -223.65 166.9 -225.35 170.55 -223.65 167 -217.55 170.55 -223.65 167 -217.55 169.9 -197.1 167 -217.55 169.9 -197.1 167.75 -192.75 169.9 -197.1 167.75 -192.75 170.5 -173.3 167.75 -192.75 170.5 -173.3 166.4 -170.4 170.5 -173.3 166.4 -170.4 169.45 -165.65 166.4 -170.4 169.45 -165.65 166.3 -163.9 169.45 -165.65 166.3 -163.9 166.5 -160.5 166.3 -163.9 166.5 -160.5 169.3 -159.8 
triangles light 4 0 14 187.05 -160.95 192.9 -162.75 187.1 -166.4 192.9 -162.75 187.1 -166.4 190.35 -168.6 187.1 -166.4 190.35 -168.6 186.35 -171.85 190.35 -168.6 186.35 -171.85 189.7 -173.35 186.35 -171.85 189.7 -173.35 186.95 -174.35 189.7 -173.35 186.95 -174.35 190.4 -175.4 186.95 -174.35 190.4 -175.4 186.95 -177.35 190.4 -175.4 186.95 -177.35 189.9 -179.45 186.95 -177.35 189.9 -179.45 184.9 -180.25 189.9 -179.45 184.9 -180.25 188.45 -183.15 184.9 -180.25 188.45 -183.15 185.2 -184.95 188.45 -183.15 185.2 -184.95 189.55 -187.4 185.2 -184.95 189.55 -187.4 188.45 -195.2 189.55 -187.4 188.45 -195.2 185.5 -195.55 
triangles dark 2 1 10 188.3 -169.45 188.4 -175.5 184.55 -170.85 188.4 -175.5 184.55 -170.85 185.15 -176.45 184.55 -170.85 185.15 -176.45 179.4 -174.15 185.15 -176.45 179.4 -174.15 180.05 -177.45 179.4 -174.15 180.05 -177.45 173.15 -175.8 180.05 -177.45 173.15 -175.8 173.2 -179.45 173.15 -175.8 173.2 -179.45 169.7 -176.25 173.2 -179.45 169.7 -176.25 171.3 -180.6 169.7 -176.25 171.3 -180.6 168.4 -176.9 171.3 -180.6 168.4 -176.9 169.3 -181.3 
triangles dark 2 1 10 214.1 -170.3 217.25 -171.05 210.7 -173.5 217.25 -171.05 210.7 -173.5 213.7 -176.45 210.7 -173.5 213.7 -176.45 206.75 -173.1 213.7 -176.45 206.75 -173.1 205.05 -177.25 206.75 -173.1 205.05 -177.25 201 -174.1 205.05 -177.25 201 -174.1 198.3 -177.6 201 -174.1 198.3 -177.6 194.75 -172.55 198.3 -177.6 194.75 -172.55 192.6 -176.3 194.75 -172.55 192.6 -176.3 189.6 -173.7 192.6 -176.3 189.6 -173.7 188.3 -177.45 
triangles dark 2 1 8 219.9 -171.3 229.05 -168.75 231.95 -173.85 229.05 -168.75 231.95 -173.85 237.45 -169.7 231.95 -173.85 237.45 -169.7 240.8 -174.35 237.45 -169.7 240.8 -174.35 244.95 -170.5 240.8 -174.35 244.95 -170.5 247.1 -174.7 244.95 -170.5 247.1 -174.7 248.9 -170.75 247.1 -174.7 248.9 -170.75 253.95 -170.3 248.9 -170.75 253.95 -170.3 256.85 -173.45 
triangles dark 2 1 1 245.5 -171.65 246.95 -174.45 256.15 -172.95 
triangles dark 2 1 1 256.15 -172.95 249.55 -173.5 251.4 -171.1 
triangles light 4 0 30 227.1 -149.8 241.1 -150.75 241.7 -155.8 241.1 -150.75 241.7 -155.8 247.95 -155.75 241.7 -155.8 247.95 -155.75 245.85 -163.15 247.95 -155.75 245.85 -163.15 251.95 -164.9 245.85 -163.15 251.95 -164.9 248.6 -168.95 251.95 -164.9 248.6 -168.95 254 -171.9 248.6 -168.95 254 -171.9 251.95 -176.1 254 -171.9 251.95 -176.1 255.35 -176.9 251.95 -176.1 255.35 -176.9 253.15 -185.8 255.35 -176.9 253.15 -185.8 258.35 -187.9 253.15 -185.8 258.35 -187.9 256.1 -193.85 258.35 -187.9 256.1 -193.85 263.35 -196.55 256.1 -193.85 263.35 -196.55 259.05 -202.35 263.35 -196.55 259.05 -202.35 265.8 -213.35 259.05 -202.35 265.8 -213.35 259.9 -214.5 265.8 -213.35 259.9 -214.5 264.05 -226.65 259.9 -214.5 264.05 -226.65 256.95 -228.6 264.05 -226.65 256.95 -228.6 260.9 -235.25 256.95 -228.6 260.9 -235.25 252.1 -239.05 260.9 -235.25 252.1 -239.05 256.3 -243.35 252.1 -239.05 256.3 -243.35 244.8 -249.95 256.3 -243.35 244.8 -249.95 243.35 -255.4 244.8 -249.95 243.35 -255.4 237.3 -254.1 243.35 -255.4 237.3 -254.1 232.3 -257.3 237.3 -254.1 232.3 -257.3 228.75 -254.2 232.3 -257.3 228.75 -254.2 224.1 -257.8 228.75 -254.2 224.1 -257.8 221.95 -253.85 224.1 -257.8 221.95 -253.85 215.9 -253.3 221.95 -253.85 215.9 -253.3 210.15 -257.65 215.9 -253.3 210.15 -257.65 210.15 -257.65 
triangles light 4 0 8 234.45 -176.45 233.6 -173.35 239.55 -173.95 234.45 -176.45 239.55 -173.95 240.15 -177.55 234.45 -176.45 240.15 -177.55 237.8 -183.25 234.45 -176.45 237.8 -183.25 232.45 -183.6 234.45 -176.45 232.45 -183.6 227.2 -181.05 234.45 -176.45 227.2 -181.05 223.4 -175.9 234.45 -176.45 223.4 -175.9 227.1 -173.25 234.45 -176.45 227.1 -173.25 233.6 -173.35 
triangles light 4 0 9 242.55 -199.25 243 -192.6 250.65 -193.05 242.55 -199.25 250.65 -193.05 251.85 -196.75 242.55 -199.25 251.85 -196.75 251.4 -202.85 242.55 -199.25 251.4 -202.85 246.9 -204.9 242.55 -199.25 246.9 -204.9 240.8 -205.05 242.55 -199.25 240.8 -205.05 235.15 -202.7 242.55 -199.25 235.15 -202.7 231.8 -197.05 242.55 -199.25 231.8 -197.05 235.6 -192.2 242.55 -199.25 235.6 -192.2 243 -192.6 
coin 119.6 -94.7
coin 122.05 -94.75
coin 124.25 -95.05
coin 118.775 -85.55
coin 117.275 -85.075
coin 115.2 -84.875
boost 122.125 -93.175
boost 126.075 -116.15
boost 123.275 -120.825
triangles light 4 0 9 218.95 -214.75 222.45 -206.35 228.5 -210.05 218.95 -214.75 228.5 -210.05 230.4 -215.25 218.95 -214.75 230.4 -215.25 229.45 -220.45 218.95 -214.75 229.45 -220.45 223.7 -222.7 218.95 -214.75 223.7 -222.7 214.45 -221.25 218.95 -214.75 214.45 -221.25 209.55 -218.25 218.95 -214.75 209.55 -218.25 208.85 -213.2 218.95 -214.75 208.85 -213.2 214.9 -209.35 218.95 -214.75 214.9 -209.35 222.45 -206.35 
coin 112.8 -102.425
coin 109.05 -102.425
coin 107.05 -103.5
startpoint 84 -68.05
triangles light 4 0 26 185.85 -195.05 188.8 -194.7 185.9 -217.7 188.8 -194.7 185.9 -217.7 190.25 -221.45 185.9 -217.7 190.25 -221.45 186.05 -247.2 190.25 -221.45 186.05 -247.2 189.4 -250.95 186.05 -247.2 189.4 -250.95 186.95 -271.05 189.4 -250.95 186.95 -271.05 192.45 -273.8 186.95 -271.05 192.45 -273.8 189.9 -281.85 192.45 -273.8 189.9 -281.85 195.4 -283.5 189.9 -281.85 195.4 -283.5 193.85 -299.45 195.4 -283.5 193.85 -299.45 200.1 -300.25 193.85 -299.45 200.1 -300.25 207.2 -319.3 200.1 -300.25 207.2 -319.3 213.45 -319.65 207.2 -319.3 213.45 -319.65 213.1 -323.65 213.45 -319.65 213.1 -323.65 219.85 -323.25 213.1 -323.65 219.85 -323.25 228.2 -333 219.85 -323.25 228.2 -333 236.6 -329.25 228.2 -333 236.6 -329.25 239.8 -333.95 236.6 -329.25 239.8 -333.95 244.75 -330.85 239.8 -333.95 244.75 -330.85 255.45 -333.8 244.75 -330.85 255.45 -333.8 257.8 -330.1 255.45 -333.8 257.8 -330.1 274.85 -333.3 257.8 -330.1 274.85 -333.3 276.45 -329.5 274.85 -333.3 276.45 -329.5 292.35 -334 276.45 -329.5 292.35 -334 294.2 -326.8 292.35 -334 294.2 -326.8 302.75 -328.15 294.2 -326.8 302.75 -328.15 303.55 -321.75 
coin 121.775 -123.7
coin 119.775 -125.025
coin 117.3 -125.675
coin 115.025 -125.85
coin 111.925 -125.55
coin 109.175 -125.375
triangles light 4 0 2 185.05 -195.65 188.95 -194.3 185.7 -207.7 188.95 -194.3 185.7 -207.7 189.3 -210.45 
triangles light 4 0 3 185.1 -207.55 189.9 -207.95 185.5 -215.9 189.9 -207.95 185.5 -215.9 190.55 -231.8 185.5 -215.9 190.55 -231.8 186.05 -233 
triangles light 4 0 4 185.8 -231.4 190.55 -231.3 185.5 -247.35 190.55 -231.3 185.5 -247.35 190.3 -256 185.5 -247.35 190.3 -256 186.75 -260.75 190.3 -256 186.75 -260.75 190.75 -263 
triangles light 4 0 6 186.05 -260.4 191.05 -262.45 186.1 -272.25 191.05 -262.45 186.1 -272.25 193.65 -273.85 186.1 -272.25 193.65 -273.85 188.95 -281.45 193.65 -273.85 188.95 -281.45 197.15 -284.55 188.95 -281.45 197.15 -284.55 191.05 -290.05 197.15 -284.55 191.05 -290.05 198.9 -292.85 
triangles light 4 0 1 198.8 -292.1 191.05 -289.55 192.6 -297.6 
triangles light 4 0 6 192.05 -295.95 198.9 -292.55 194.55 -302.1 198.9 -292.55 194.55 -302.1 203.6 -303.75 194.55 -302.1 203.6 -303.75 201.9 -314.15 203.6 -303.75 201.9 -314.15 212.15 -316.15 201.9 -314.15 212.15 -316.15 208.6 -324.1 212.15 -316.15 208.6 -324.1 221 -322.45 
triangles light 4 0 8 209.75 -323.8 221 -322.05 222.65 -332.55 221 -322.05 222.65 -332.55 231.25 -325.85 222.65 -332.55 231.25 -325.85 240.85 -335.45 231.25 -325.85 240.85 -335.45 244.55 -330.05 240.85 -335.45 244.55 -330.05 259.1 -336.4 244.55 -330.05 259.1 -336.4 260.25 -328.5 259.1 -336.4 260.25 -328.5 266.5 -336.05 260.25 -328.5 266.5 -336.05 269.05 -326.8 
triangles light 4 0 6 268.9 -326.6 266 -336.35 279.85 -326.9 266 -336.35 279.85 -326.9 286.55 -336.45 279.85 -326.9 286.55 -336.45 289.75 -325.85 286.55 -336.45 289.75 -325.85 300.7 -332.4 289.75 -325.85 300.7 -332.4 304.9 -319.55 300.7 -332.4 304.9 -319.55 307.85 -331.25 
triangles dark 2 1 10 226.05 -310.7 233.35 -311.75 227.4 -314.05 233.35 -311.75 227.4 -314.05 232 -314.5 227.4 -314.05 232 -314.5 227.85 -316.65 232 -314.5 227.85 -316.65 231.1 -319.15 227.85 -316.65 231.1 -319.15 228.2 -320 231.1 -319.15 228.2 -320 229.65 -321.45 228.2 -320 229.65 -321.45 228 -322.6 229.65 -321.45 228 -322.6 229.45 -323.6 228 -322.6 229.45 -323.6 227.2 -324.95 229.45 -323.6 227.2 -324.95 229.9 -327.2 
triangles dark 2 1 11 246.75 -312.7 253.2 -312.75 248.05 -317.15 253.2 -312.75 248.05 -317.15 252.05 -318 248.05 -317.15 252.05 -318 248.7 -320.15 252.05 -318 248.7 -320.15 250.6 -321.25 248.7 -320.15 250.6 -321.25 249.05 -323.05 250.6 -321.25 249.05 -323.05 251.25 -324.4 249.05 -323.05 251.25 -324.4 249.1 -326 251.25 -324.4 249.1 -326 253.15 -327.05 249.1 -326 253.15 -327.05 248.45 -328.95 253.15 -327.05 248.45 -328.95 255.85 -330.4 248.45 -328.95 255.85 -330.4 245.15 -332.1 
triangles dark 2 1 7 269.35 -313.4 276.45 -313.45 268.95 -317.75 276.45 -313.45 268.95 -317.75 274.1 -319 268.95 -317.75 274.1 -319 270.9 -321.05 274.1 -319 270.9 -321.05 274.45 -323.6 270.9 -321.05 274.45 -323.6 270.3 -326.55 274.45 -323.6 270.3 -326.55 274.9 -328.4 270.3 -326.55 274.9 -328.4 269.05 -330.6 
triangles light 4 0 7 230 -307 232.7 -302.7 235.4 -306.85 230 -307 235.4 -306.85 235.35 -311.65 230 -307 235.35 -311.65 229.65 -313.4 230 -307 229.65 -313.4 224.8 -311.15 230 -307 224.8 -311.15 224.4 -306.7 230 -307 224.4 -306.7 228.85 -302.05 230 -307 228.85 -302.05 232.7 -302.7 
triangles light 4 0 7 249.6 -307.05 249.3 -313.5 243.05 -311.45 249.6 -307.05 243.05 -311.45 242.45 -305.7 249.6 -307.05 242.45 -305.7 249.05 -301.65 249.6 -307.05 249.05 -301.65 251.95 -303.35 249.6 -307.05 251.95 -303.35 258.9 -309.6 249.6 -307.05 258.9 -309.6 255.35 -313.7 249.6 -307.05 255.35 -313.7 249.3 -313.5 
triangles light 4 0 8 274.45 -307.85 278.65 -310.1 277.35 -312.85 274.45 -307.85 277.35 -312.85 274.8 -314.15 274.45 -307.85 274.8 -314.15 270 -314.45 274.45 -307.85 270 -314.45 264.95 -313.65 274.45 -307.85 264.95 -313.65 264.25 -305.85 274.45 -307.85 264.25 -305.85 267.45 -304.4 274.45 -307.85 267.45 -304.4 275.4 -302.4 274.45 -307.85 275.4 -302.4 278.65 -310.1 
triangles dark 2 1 10 217.95 -208.4 229.35 -214.55 222.5 -206.85 229.35 -214.55 222.5 -206.85 229.2 -209.2 222.5 -206.85 229.2 -209.2 227.1 -204.85 229.2 -209.2 227.1 -204.85 231.6 -205.9 227.1 -204.85 231.6 -205.9 229.7 -201.4 231.6 -205.9 229.7 -201.4 233.95 -203.85 229.7 -201.4 233.95 -203.85 229.75 -198.45 233.95 -203.85 229.75 -198.45 236.95 -204.15 229.75 -198.45 236.95 -204.15 234.25 -194.2 236.95 -204.15 234.25 -194.2 242.6 -204.75 
triangles dark 2 1 7 226.95 -179.45 239.7 -177.75 233.05 -185.55 239.7 -177.75 233.05 -185.55 238.8 -184.6 233.05 -185.55 238.8 -184.6 234.5 -188.2 238.8 -184.6 234.5 -188.2 241.35 -189.4 234.5 -188.2 241.35 -189.4 234.2 -193.2 241.35 -189.4 234.2 -193.2 244.75 -194.2 234.2 -193.2 244.75 -194.2 233.55 -197.7 
triangles dark 2 1 1 225.45 -176.4 219.8 -170.35 226.6 -169.2 
triangles dark 2 1 1 229.6 -176.35 224.8 -175 225.95 -170.1 
triangles dark 2 1 1 230.95 -175.8 227.05 -174.75 227.75 -170.85 
triangles dark 2 1 1 248.15 -194.05 248.8 -203 252.65 -202.25 
triangles dark 2 1 5 262 -201.75 257.85 -193.15 257 -202.9 257.85 -193.15 257 -202.9 254.75 -195.3 257 -202.9 254.75 -195.3 254.55 -202 254.75 -195.3 254.55 -202 249.25 -194.2 254.55 -202 249.25 -194.2 247.3 -201.3 
triangles dark 2 1 1 249.85 -203.2 255.65 -201.35 250.25 -198.85 
triangles dark 2 1 1 213.4 -219.65 214.4 -210.35 206.65 -213.1 
triangles dark 2 1 8 187.35 -219.75 187.5 -208.95 193.7 -218.95 187.5 -208.95 193.7 -218.95 194.6 -210.95 193.7 -218.95 194.6 -210.95 197.7 -216.4 194.6 -210.95 197.7 -216.4 203.25 -211.9 197.7 -216.4 203.25 -211.9 204.9 -216.75 203.25 -211.9 204.9 -216.75 208.45 -211.15 204.9 -216.75 208.45 -211.15 214.15 -219.5 208.45 -211.15 214.15 -219.5 217.9 -208.85 
triangles dark 2 1 16 215.05 -218.45 228.5 -217.6 216.9 -222.65 228.5 -217.6 216.9 -222.65 227.25 -222.4 216.9 -222.65 227.25 -222.4 220.8 -226.15 227.25 -222.4 220.8 -226.15 226 -226.45 220.8 -226.15 226 -226.45 223.55 -229.85 226 -226.45 223.55 -229.85 226 -231.05 223.55 -229.85 226 -231.05 222.6 -236.45 226 -231.05 222.6 -236.45 228.5 -239.65 222.6 -236.45 228.5 -239.65 220.75 -242.55 228.5 -239.65 220.75 -242.55 228.9 -243.9 220.75 -242.55 228.9 -243.9 220.35 -246.6 228.9 -243.9 220.35 -246.6 224.25 -247.9 220.35 -246.6 224.25 -247.9 217.9 -249.55 224.25 -247.9 217.9 -249.55 224.15 -252.9 217.9 -249.55 224.15 -252.9 214.6 -254.7 224.15 -252.9 214.6 -254.7 223.95 -255.45 
triangles dark 2 1 6 225.1 -244.85 228.75 -242.35 227.05 -248.05 228.75 -242.35 227.05 -248.05 230.35 -247.9 227.05 -248.05 230.35 -247.9 228.65 -252.3 230.35 -247.9 228.65 -252.3 232.7 -252.55 228.65 -252.3 232.7 -252.55 229.7 -256.15 232.7 -252.55 229.7 -256.15 236.9 -254.95 
triangles dark 2 1 2 254.45 -177.95 251.35 -170.2 260.55 -177.25 251.35 -170.2 260.55 -177.25 267.45 -176.9 
triangles dark 2 1 9 252.25 -169.85 254.6 -178.6 260.1 -169.6 254.6 -178.6 260.1 -169.6 263.95 -177.6 260.1 -169.6 263.95 -177.6 270.25 -169.7 263.95 -177.6 270.25 -169.7 271.65 -177.65 270.25 -169.7 271.65 -177.65 276.65 -172.6 271.65 -177.65 276.65 -172.6 277 -176.6 276.65 -172.6 277 -176.6 282 -170.55 277 -176.6 282 -170.55 283.6 -174.95 282 -170.55 283.6 -174.95 284.7 -170.95 
triangles dark 2 1 6 259.3 -192.55 262.2 -201.1 264.8 -191.35 262.2 -201.1 264.8 -191.35 269.85 -199.85 264.8 -191.35 269.85 -199.85 269.35 -187.95 269.85 -199.85 269.35 -187.95 275.2 -203.05 269.35 -187.95 275.2 -203.05 281.3 -182.7 275.2 -203.05 281.3 -182.7 284.2 -200.4 
triangles dark 2 1 2 283.1 -200.9 280.05 -183.3 294.85 -203.45 280.05 -183.3 294.85 -203.45 296.6 -176.1 
triangles dark 2 1 10 243.7 -252.15 252.8 -244.1 247.2 -261.55 252.8 -244.1 247.2 -261.55 252.75 -259.75 247.2 -261.55 252.75 -259.75 248.25 -269.5 252.75 -259.75 248.25 -269.5 254.35 -271.15 248.25 -269.5 254.35 -271.15 249.9 -287.15 254.35 -271.15 249.9 -287.15 255 -288.05 249.9 -287.15 255 -288.05 244.25 -300.05 255 -288.05 244.25 -300.05 255.6 -302.9 244.25 -300.05 255.6 -302.9 242.85 -307.3 255.6 -302.9 242.85 -307.3 256.85 -309.45 
triangles dark 2 1 13 224.9 -306.05 235.15 -309.05 228.65 -297.15 235.15 -309.05 228.65 -297.15 234.25 -298.7 228.65 -297.15 234.25 -298.7 232.5 -291.3 234.25 -298.7 232.5 -291.3 235.95 -292.3 232.5 -291.3 235.95 -292.3 235.65 -285.4 235.95 -292.3 235.65 -285.4 238.75 -286.6 235.65 -285.4 238.75 -286.6 238.45 -282.85 238.75 -286.6 238.45 -282.85 241.4 -284.8 238.45 -282.85 241.4 -284.8 242.8 -281.2 241.4 -284.8 242.8 -281.2 246.65 -283.85 242.8 -281.2 246.65 -283.85 247.65 -281.3 246.65 -283.85 247.65 -281.3 250.4 -284.35 247.65 -281.3 250.4 -284.35 251.25 -281.1 
triangles light 4 0 8 200.75 -264.35 203.9 -260.95 203.85 -268.5 203.9 -260.95 203.85 -268.5 210.25 -264.2 203.85 -268.5 210.25 -264.2 210.95 -270.6 210.25 -264.2 210.95 -270.6 214.1 -268.3 210.95 -270.6 214.1 -268.3 215.15 -273.8 214.1 -268.3 215.15 -273.8 221.2 -275.1 215.15 -273.8 221.2 -275.1 221.15 -281.55 221.2 -275.1 221.15 -281.55 224.45 -283.2 
coin 107.025 -132.4
coin 108.725 -133.975
coin 110.7 -135.775
boost 115.425 -149.475
coin 113.575 -159.75
coin 118.175 -161.425
coin 123.3 -162.575
triangles dark 2 1 4 195.6 -288.2 189.1 -268.75 204.05 -282.55 189.1 -268.75 204.05 -282.55 198.95 -270.7 204.05 -282.55 198.95 -270.7 210.6 -280.15 198.95 -270.7 210.6 -280.15 204.65 -262.85 
triangles dark 2 1 1 210.45 -280 222.75 -280.5 206.15 -264.4 
triangles dark 2 1 1 212.45 -278.75 209.2 -279.8 207 -266.3 
triangles dark 2 1 9 215.4 -271.5 217.9 -273.1 217.2 -270.5 217.9 -273.1 217.2 -270.5 218.6 -271.55 217.2 -270.5 218.6 -271.55 218.35 -269.55 218.6 -271.55 218.35 -269.55 220.1 -269.15 218.35 -269.55 220.1 -269.15 219.7 -266.9 220.1 -269.15 219.7 -266.9 220.9 -267.35 219.7 -266.9 220.9 -267.35 219.9 -264.65 220.9 -267.35 219.9 -264.65 219.9 -264.65 219.9 -264.65 219.9 -264.65 219.6 -263.3 
triangles dark 2 1 10 220.8 -267.45 219.95 -264.75 221.75 -264.95 219.95 -264.75 221.75 -264.95 220.6 -263.1 221.75 -264.95 220.6 -263.1 221.9 -263.15 220.6 -263.1 221.9 -263.15 220.35 -261 221.9 -263.15 220.35 -261 221.75 -260.6 220.35 -261 221.75 -260.6 219.95 -259.2 221.75 -260.6 219.95 -259.2 221.5 -258.15 219.95 -259.2 221.5 -258.15 220.55 -257 221.5 -258.15 220.55 -257 222.65 -256.9 220.55 -257 222.65 -256.9 221.9 -255.05 
triangles dark 2 1 1 211.35 -256.75 203.55 -262.2 216.4 -255.15 
boost 98.6 -136
coin 101.6 -79.825
coin 92.375 -77.825
goal 150.15 -158.05
coin 149.625 -158.65
item Sign3 2 110 -79.975 75 179
item Rock2 4 120.425 -163.275 128 114
item Rock4 4 115.5 -125.025 196 127
item Rock1 4 107.2 -102.125 180 119
item Rock2 4 77.525 -71.6 128 114
item Rock3 4 92.675 -78.225 126 93
item Rock2 2 91.1 -78.075 128 114
item Rock5 2 89.925 -77.725 216 122
item Rock4 2 148.625 -159.125 196 127
item Rock5 2 77.575 -186.35 216 122
item Log 2 114.525 -73.55 66 62
item Log 2 115.875 -73.725 66 62
item Log 2 117.375 -73.825 66 62
item Log 2 118.8 -73.925 66 62
item Log 2 115.4 -72.375 66 62
item Log 2 116.775 -72.6 66 62
item Log 2 118.2 -72.7 66 62
item Log 2 116.3 -71.3 66 62
item Log 2 117.725 -71.45 66 62
item Cumulus1 2 70.575 -133.375 760 504
item Cumulus3 2 75.05 -105.325 634 413
item Cumulus2 2 98.45 -66.925 728 360
item Cumulus1 2 132 -74 760 504
item Cumulus2 2 136.2 -114.55 728 360
item Cumulus3 2 155.675 -159.55 634 413
item Cumulus2 2 130.875 -138.95 728 360
item Cumulus2 2 89.7 -165.825 728 360
item Cumulus2 2 116.775 -171.475 728 360
triangles light 4 0 7 -21.95 -37.9 -20.25 -31.25 -11 -41.95 -20.25 -31.25 -11 -41.95 -9 -37.7 -11 -41.95 -9 -37.7 -0.95 -42.75 -9 -37.7 -0.95 -42.75 3.85 -39.5 -0.95 -42.75 3.85 -39.5 13.45 -43 3.85 -39.5 13.45 -43 17.7 -39.6 13.45 -43 17.7 -39.6 21.75 -43.4 
triangles light 4 0 2 14.75 -43.4 147.7 -120.35 17.25 -39.65 147.7 -120.35 17.25 -39.65 152.9 -117.4 
triangles light 4 0 2 -21.4 -37.3 -45.4 -3.25 -19.6 -32.35 -45.4 -3.25 -19.6 -32.35 -42.1 7.4 
coin 2.3 -18.625
coin 5.925 -18.575
coin 9.95 -19
coin 12.75 -20.45
coin 15.375 -22.05
coin 18.05 -23.675
coin 21.425 -25.425
coin 24.75 -26.975
coin 27.725 -28.875
coin 30.875 -30.625
coin 34.25 -32.3
coin 36.825 -33.95
coin 39.95 -35.65
coin 42.8 -37.225
coin 43.675 -37.625
coin 47.775 -39.8
coin 50.675 -41.425
coin 54.4 -43.325
coin 57.1 -45.475
coin 62.15 -48.775
coin 65.85 -51.125
coin 70.425 -53.4
coin 74.125 -55.225
coin 76.225 -56.75
item Cumulus1 2 -6.275 -25.625 760 504
item Cumulus3 2 23.475 -39.875 634 413
item Cumulus3 2 -7.25 0.5 634 413
item Cumulus1 2 18.475 -11.45 760 504
item Cumulus3 2 40.275 -24.475 634 413
item Cumulus3 2 73.25 -42.225 634 413
item Cumulus3 2 83.925 -57.625 634 413
item Cumulus3 2 50.175 -55.05 634 413
